application_id,starting_time,finishing_time,res_demand,res_demand_deviation,preemptible
09ce8beb-2f5c-42a9-9c91-d1819c6a9c8a,2021-03-28 17:00:00+00:00,2021-11-08 23:00:00+00:00,0.18,0.03,True
ec25b360-106a-4e0c-99a5-ceab19a5f21e,2021-02-02 20:00:00+00:00,2021-08-05 02:00:00+00:00,0.22,0.05,True
54862e10-9140-4f7e-bbe3-022d37060bea,2021-09-28 06:00:00+00:00,2021-12-24 13:00:00+00:00,1.55,0.33,True
4f10a9bd-eb83-4f72-bc28-df3d877ef23b,2021-03-22 06:00:00+00:00,2021-07-04 13:00:00+00:00,4.06,0.85,True
3c43f42f-235f-4cf9-982a-d3728d790eea,2021-03-14 23:00:00+00:00,2021-03-15 08:00:00+00:00,2.45,0.77,False
b0cb3d6e-8391-4606-9813-6bd9dd22192a,2021-01-30 11:00:00+00:00,2021-09-12 11:00:00+00:00,3.98,1.24,True
4302d0ca-09b0-47af-bff1-bb8d9109741a,2021-09-04 12:00:00+00:00,2021-10-25 22:00:00+00:00,3.43,1.09,True
73824954-a4f0-4437-b29c-922209379fcb,2021-07-04 21:00:00+00:00,2021-12-18 16:00:00+00:00,3.96,0.64,True
0751916e-db60-4974-812c-9b90321b1f62,2021-06-06 05:00:00+00:00,2021-09-15 20:00:00+00:00,0.36,0.08,True
6d88e694-ec51-40cb-baa0-b0a7d1f393cf,2021-07-08 04:00:00+00:00,2021-08-05 13:00:00+00:00,0.41,0.0,False
9b4ecd36-c8f6-400d-bf38-d1af53d265bc,2021-01-05 09:00:00+00:00,2021-08-30 19:00:00+00:00,3.73,1.02,False
e2c3aac1-4d32-4f24-8eb7-36f4eb6ff13c,2021-05-31 02:00:00+00:00,2021-08-12 11:00:00+00:00,3.37,0.57,False
ffea4a3b-f6fc-4861-aa00-cbda2ae2b13e,2021-09-11 20:00:00+00:00,2021-12-05 21:00:00+00:00,2.53,0.63,True
9b676f16-535d-4389-9bcc-a76caa72847c,2021-08-09 05:00:00+00:00,2021-11-12 06:00:00+00:00,11.54,2.26,True
16d02716-f455-4b35-9f3b-f815901f9f36,2021-04-01 20:00:00+00:00,2021-09-20 10:00:00+00:00,4.98,1.07,True
80bce871-e04f-420c-b723-dd6083a0433d,2021-02-18 00:00:00+00:00,2021-06-15 21:00:00+00:00,1.91,0.23,True
fc4ed08d-5f71-43f9-8ace-95e96471da96,2021-09-06 21:00:00+00:00,2021-10-05 20:00:00+00:00,1.68,0.28,False
ed588932-f8c1-4656-94eb-80b69a029f78,2021-03-25 23:00:00+00:00,2021-12-30 00:00:00+00:00,4.38,0.66,True
1f405625-45c5-4f30-a1f8-33f9061073f7,2021-08-23 02:00:00+00:00,2021-09-11 13:00:00+00:00,6.96,0.05,False
da5086af-6ccf-45e4-a822-d5166367b72a,2021-08-28 19:00:00+00:00,2021-09-15 03:00:00+00:00,0.76,0.07,False
