application_id,starting_time,finishing_time,res_demand,res_demand_deviation,preemptible
e53a55a7-7c07-4f06-811a-0351b7ceab2a,2021-01-12 15:00:00+00:00,2021-01-26 05:00:00+00:00,4.16,0.19,True
89d47431-2a00-4987-b991-f58e78acb11f,2021-01-04 03:00:00+00:00,2021-01-08 21:00:00+00:00,3.25,0.04,True
2e502b29-3ace-4cd7-8f40-765177d168b9,2021-01-07 14:00:00+00:00,2021-01-13 23:00:00+00:00,4.79,0.28,False
993fc101-46f8-4d21-8e88-971781a526f4,2021-01-01 10:00:00+00:00,2021-01-20 09:00:00+00:00,0.88,0.16,False
c56675b1-960e-4d61-b938-6e4f98a410fc,2021-01-02 10:00:00+00:00,2021-01-22 12:00:00+00:00,3.92,0.05,True
e70407c9-59de-4001-99b1-15393d2e3d36,2021-01-10 19:00:00+00:00,2021-01-21 18:00:00+00:00,1.75,0.06,True
727b1911-9cbd-4efb-9686-7a599c184719,2021-01-20 00:00:00+00:00,2021-01-28 16:00:00+00:00,2.61,0.6,False
868b55b0-a5d6-496d-87ed-45b0d72955f0,2021-01-11 07:00:00+00:00,2021-01-28 00:00:00+00:00,2.2,0.19,False
7ec0f686-0425-4eff-96cc-cdbf8bbc6ac4,2021-01-02 07:00:00+00:00,2021-01-23 03:00:00+00:00,0.13,0.04,False
c1eaba02-d288-4c70-987d-03442d457794,2021-01-25 00:00:00+00:00,2021-01-28 06:00:00+00:00,4.05,1.07,False
45710baf-37da-4cf7-a054-c4e2cded16eb,2021-01-25 18:00:00+00:00,2021-01-28 09:00:00+00:00,0.84,0.03,True
5e501bdb-a356-453b-88a7-0ac664074ce2,2021-01-07 20:00:00+00:00,2021-01-28 13:00:00+00:00,2.91,0.2,True
94eed682-e5ff-4519-aa4f-d330562733bc,2021-01-12 02:00:00+00:00,2021-01-17 10:00:00+00:00,2.6,1.43,False
97a34a3a-f038-4a81-8a0e-75960e3be1d1,2021-01-04 13:00:00+00:00,2021-01-25 20:00:00+00:00,4.16,0.46,True
1dd55e45-017f-4f82-9dd5-fa4cdaa56c3b,2021-01-14 23:00:00+00:00,2021-01-22 11:00:00+00:00,0.46,0.04,True
050b5c09-762e-496a-9a15-aa345343ab51,2021-01-13 09:00:00+00:00,2021-01-18 12:00:00+00:00,4.49,0.65,True
6d80b0c4-90e6-4280-99de-98f1e084aaf8,2021-01-04 05:00:00+00:00,2021-01-26 14:00:00+00:00,0.97,0.21,True
f4c431e6-fb80-44c9-92cd-350c732d02c9,2021-01-17 06:00:00+00:00,2021-01-19 07:00:00+00:00,4.11,0.24,True
148ffec8-b657-461f-8d88-c06601f52b8d,2021-01-02 17:00:00+00:00,2021-01-23 17:00:00+00:00,2.66,0.86,True
bc2362ad-3835-45c7-bd6a-6f67760b24ec,2021-01-04 10:00:00+00:00,2021-01-25 12:00:00+00:00,2.66,0.58,True
8f0f0068-bafa-4172-af4c-373801936949,2021-01-24 23:00:00+00:00,2021-01-25 07:00:00+00:00,9.75,1.89,True
0fb2ea67-d280-4de9-92ac-8f2f5d718324,2021-01-07 01:00:00+00:00,2021-01-14 15:00:00+00:00,3.01,0.02,False
f6535ad0-1b63-4b4c-be60-2cd35beb3588,2021-01-07 00:00:00+00:00,2021-01-10 13:00:00+00:00,2.81,0.68,True
86ed1830-7d41-470d-97a6-31b8e32ddb4c,2021-01-11 04:00:00+00:00,2021-01-22 23:00:00+00:00,0.35,0.05,True
67fbad68-fd49-40a3-9dfe-8c6810ec255e,2021-01-09 06:00:00+00:00,2021-01-26 06:00:00+00:00,0.68,0.08,False
3dea45fa-d527-43a9-b1e8-207a7fe06ce7,2021-01-13 03:00:00+00:00,2021-01-17 16:00:00+00:00,4.3,0.53,False
cf6364f7-b675-46f1-8f0b-2a183e3d0b4f,2021-01-04 02:00:00+00:00,2021-01-28 03:00:00+00:00,4.05,0.62,True
03763663-5a95-48af-be09-6c358ca081e7,2021-01-12 21:00:00+00:00,2021-01-24 19:00:00+00:00,1.54,0.25,True
2d5541f5-0bf0-42ae-bf22-af657f77a6ba,2021-01-08 20:00:00+00:00,2021-01-17 10:00:00+00:00,1.75,0.17,True
aa223ff3-ec47-44a2-815c-2aac07e351f1,2021-01-09 08:00:00+00:00,2021-01-26 01:00:00+00:00,4.55,0.9,False
6c51587e-6658-4a52-853c-651c467567f0,2021-01-03 23:00:00+00:00,2021-01-29 04:00:00+00:00,3.83,1.19,True
914774c7-bb99-45f4-8273-a85ffa2b1ec6,2021-01-04 13:00:00+00:00,2021-01-26 20:00:00+00:00,8.07,0.53,False
2a7a8bdd-d9f0-437f-a855-69841d7ee8d4,2021-01-03 19:00:00+00:00,2021-01-08 15:00:00+00:00,0.58,0.07,False
58b2f447-6c83-4e2c-a282-8fbc4d0b2126,2021-01-14 14:00:00+00:00,2021-01-22 17:00:00+00:00,2.73,0.05,True
c28a2b85-6aa6-494e-8fd4-8fb1eec422be,2021-01-18 17:00:00+00:00,2021-01-20 20:00:00+00:00,2.57,0.49,False
de0e56e2-ac4c-4c29-8444-5db0a909f687,2021-01-05 12:00:00+00:00,2021-01-14 20:00:00+00:00,3.59,0.49,True
569fa146-63c6-4f4d-bfe8-3734fa81a4df,2021-01-20 08:00:00+00:00,2021-01-28 01:00:00+00:00,3.95,1.53,False
a9084e1e-2af4-41a7-b938-58f0a7302b26,2021-01-15 21:00:00+00:00,2021-01-27 01:00:00+00:00,3.13,0.65,False
57fdce31-c1ea-43c9-a6b4-4933a69949bc,2021-01-17 09:00:00+00:00,2021-01-23 16:00:00+00:00,1.33,0.29,False
2a9ea23c-3fc9-4035-8701-7e83ffc8fc7d,2021-01-02 13:00:00+00:00,2021-01-19 04:00:00+00:00,0.22,0.03,False
49000af7-f3e7-4c00-89ce-c11dcf28bc2c,2021-01-05 07:00:00+00:00,2021-01-07 05:00:00+00:00,3.23,1.03,False
3252508d-97fc-497a-b9df-23555793e090,2021-01-08 12:00:00+00:00,2021-01-19 22:00:00+00:00,0.95,0.17,False
bb499087-31be-4db0-acd9-2576acdfa3c6,2021-01-05 23:00:00+00:00,2021-01-18 10:00:00+00:00,2.51,1.13,True
acc4c734-8803-494e-a16c-bf186ea011fc,2021-01-04 20:00:00+00:00,2021-01-13 13:00:00+00:00,0.43,0.06,True
64bf1ff4-4f42-484f-b1d8-08c7c6202294,2021-01-08 00:00:00+00:00,2021-01-11 15:00:00+00:00,2.96,0.56,True
8455b584-5058-41c8-8f46-a2edaf846bac,2021-01-19 01:00:00+00:00,2021-01-21 17:00:00+00:00,0.07,0.0,True
90c281c9-da1e-4160-afad-74824ac0ad64,2021-01-10 21:00:00+00:00,2021-01-13 23:00:00+00:00,1.7,0.36,True
878b0022-b053-4888-b2e8-f4983a0bdd8d,2021-01-19 00:00:00+00:00,2021-01-30 17:00:00+00:00,8.13,1.71,True
120fb197-5e50-4991-a1f4-4759a1a2a776,2021-01-05 08:00:00+00:00,2021-01-17 18:00:00+00:00,4.76,1.26,False
51215f26-30e3-482e-a40d-5488656218ad,2021-01-08 11:00:00+00:00,2021-01-30 08:00:00+00:00,3.81,0.76,True
d1058484-2fa1-44e7-b3a4-5e9eef5e673b,2021-01-19 22:00:00+00:00,2021-01-26 15:00:00+00:00,1.6,0.37,False
41a63614-34b2-4e57-8b81-734bb1f1f574,2021-01-20 07:00:00+00:00,2021-01-24 11:00:00+00:00,0.2,0.02,True
68ff9c12-e650-4a2f-8396-5f2d9373363f,2021-01-16 10:00:00+00:00,2021-01-18 20:00:00+00:00,0.99,0.01,True
8cc448b8-23f9-4eb6-92ce-316143eb6272,2021-01-01 08:00:00+00:00,2021-01-04 18:00:00+00:00,2.25,0.45,True
f01eb4b3-c743-4e5a-b692-1d0a4d0a8117,2021-01-25 14:00:00+00:00,2021-01-30 01:00:00+00:00,3.51,0.56,False
f325e987-641a-402a-a574-bf964d1b2cb1,2021-01-13 01:00:00+00:00,2021-01-15 10:00:00+00:00,0.6,0.03,False
6ad0c924-6bdd-499f-ac92-414e636d0dac,2021-01-02 15:00:00+00:00,2021-01-19 04:00:00+00:00,2.97,0.9,False
873d5dc7-311d-4f62-920a-23cd86ab5af7,2021-01-06 20:00:00+00:00,2021-01-26 20:00:00+00:00,2.83,0.11,False
aacf8e2c-c042-4ef4-b3b7-b97e9500c807,2021-01-03 17:00:00+00:00,2021-01-09 16:00:00+00:00,4.95,0.03,True
36c206b5-3edd-4772-ac37-3fd4570cc392,2021-01-18 18:00:00+00:00,2021-01-30 08:00:00+00:00,0.91,0.1,True
6dc31a1c-8fd5-41c3-ba00-40a4cee5f03c,2021-01-23 01:00:00+00:00,2021-01-25 18:00:00+00:00,1.87,0.41,True
1c94d1f4-e097-40c0-8b5a-befe334a44eb,2021-01-17 19:00:00+00:00,2021-01-20 11:00:00+00:00,2.63,0.49,False
6cafbbcf-6e32-46a2-999f-4d2302787061,2021-01-21 17:00:00+00:00,2021-01-25 21:00:00+00:00,3.52,0.37,True
2afc6e79-9ac9-4a6c-99c0-920bf0b0e885,2021-01-04 02:00:00+00:00,2021-01-14 00:00:00+00:00,4.08,0.04,False
be89b164-fa2c-48de-8957-34c136c39da6,2021-01-24 22:00:00+00:00,2021-01-28 03:00:00+00:00,2.84,0.73,True
fefc55e8-efe9-4f7d-b28c-884dcbbeb95a,2021-01-08 06:00:00+00:00,2021-01-16 12:00:00+00:00,12.02,1.82,True
393b92b5-eee2-4aa8-9b98-85ebcb35b5ee,2021-01-13 04:00:00+00:00,2021-01-22 00:00:00+00:00,2.36,0.1,False
57bd6e19-d0bb-4a1e-916f-d735da107765,2021-01-15 04:00:00+00:00,2021-01-24 01:00:00+00:00,2.96,0.95,False
8071c18c-fd0b-4ae8-98b5-540d0954af58,2021-01-08 18:00:00+00:00,2021-01-18 03:00:00+00:00,0.35,0.02,True
1ae48a74-4def-40db-b84f-5260906e2766,2021-01-24 07:00:00+00:00,2021-01-30 08:00:00+00:00,16.16,1.72,True
9c7a9457-2bda-4eee-be86-b9f4c3a32119,2021-01-01 20:00:00+00:00,2021-01-26 03:00:00+00:00,7.4,1.45,False
00505062-9e3b-4277-a282-a3f994960549,2021-01-06 19:00:00+00:00,2021-01-21 16:00:00+00:00,4.81,1.47,True
a2258393-ca86-4f2d-81e7-ff137f95166d,2021-01-05 02:00:00+00:00,2021-01-15 23:00:00+00:00,0.81,0.02,True
2e7b6717-b0d3-4c60-bf04-bc1d73268fef,2021-01-22 15:00:00+00:00,2021-01-25 00:00:00+00:00,4.2,0.74,False
adf0e1dd-533b-4e85-ad8d-64b5b8bb045c,2021-01-20 14:00:00+00:00,2021-01-29 14:00:00+00:00,2.53,0.09,True
4020335d-ac7f-4497-b41a-120880a61feb,2021-01-22 18:00:00+00:00,2021-01-23 01:00:00+00:00,2.53,0.35,True
eba2b3ad-2bcd-48cb-a997-647de24970dc,2021-01-02 19:00:00+00:00,2021-01-19 11:00:00+00:00,1.49,0.07,False
9e06d184-9e8d-44c3-b185-c3c976526343,2021-01-11 06:00:00+00:00,2021-01-16 18:00:00+00:00,2.87,0.66,False
6efbed0d-7785-44c7-b836-5fa4e99b4e34,2021-01-12 06:00:00+00:00,2021-01-19 13:00:00+00:00,2.76,0.03,False
4c36bed7-5939-46f6-9976-07a339dfd107,2021-01-02 17:00:00+00:00,2021-01-26 15:00:00+00:00,3.64,0.38,True
454be26b-b68b-47f2-aedd-05238797ea26,2021-01-06 11:00:00+00:00,2021-01-26 11:00:00+00:00,3.64,0.57,False
1d310322-743e-4f58-80a5-48f299dcf276,2021-01-17 20:00:00+00:00,2021-01-29 19:00:00+00:00,1.67,0.22,True
c7408aad-aab2-4004-84ac-3dcec1a14841,2021-01-16 13:00:00+00:00,2021-01-20 15:00:00+00:00,4.36,0.15,True
5682a325-fdb3-4a55-aae1-e92283e6d998,2021-01-02 21:00:00+00:00,2021-01-29 20:00:00+00:00,2.46,0.05,True
f912ae3a-237f-411b-b4db-98080e427605,2021-01-27 00:00:00+00:00,2021-01-29 10:00:00+00:00,3.06,0.75,True
2442d8c8-7553-400c-8d8d-8c3a6d8af530,2021-01-03 20:00:00+00:00,2021-01-26 15:00:00+00:00,2.6,0.19,False
fead2932-ae9a-48cd-9c2a-346a447c7a42,2021-01-19 08:00:00+00:00,2021-01-26 03:00:00+00:00,0.48,0.23,True
89d4fdc7-c676-4bbd-91df-7e8dc0456cf8,2021-01-24 13:00:00+00:00,2021-01-27 18:00:00+00:00,4.05,0.43,False
d01fefe0-f55d-4347-8fe9-a121c857cd66,2021-01-20 05:00:00+00:00,2021-01-21 13:00:00+00:00,2.82,0.97,True
afcce311-fde5-4484-a9fa-efb8b884d077,2021-01-12 05:00:00+00:00,2021-01-12 20:00:00+00:00,1.89,0.61,False
7da85d3a-b350-4da6-b0aa-4dc9c9f77308,2021-01-04 21:00:00+00:00,2021-01-16 20:00:00+00:00,4.14,1.68,False
49e3cb4b-a377-4da2-a1e7-c3bc2774fc43,2021-01-07 22:00:00+00:00,2021-01-14 11:00:00+00:00,12.32,3.78,False
1e2c4cfa-9108-4433-8e76-f53e1fec7ce9,2021-01-01 01:00:00+00:00,2021-01-11 04:00:00+00:00,3.92,0.41,True
41fba556-5fbd-4304-96ef-56444ff1eb0a,2021-01-15 11:00:00+00:00,2021-01-15 21:00:00+00:00,0.05,0.01,True
91f13d03-f4e6-4fff-80db-fa0620a62130,2021-01-22 03:00:00+00:00,2021-01-30 13:00:00+00:00,3.25,0.18,True
7a7cd58c-bc3d-4ff3-a845-ac8cc159b5bf,2021-01-02 03:00:00+00:00,2021-01-14 12:00:00+00:00,3.16,0.07,True
ceaea83f-e9c2-466b-87e9-9a3491b24c86,2021-01-02 13:00:00+00:00,2021-01-06 02:00:00+00:00,1.78,0.04,True
65b40a5a-2842-4d4c-8377-5286c71f8a60,2021-01-05 10:00:00+00:00,2021-01-05 23:00:00+00:00,1.33,0.18,False
0d212514-ec58-4d2f-a83b-38d2cfda6ea9,2021-01-02 00:00:00+00:00,2021-01-04 10:00:00+00:00,4.74,0.01,True
65aa7002-8764-4697-bac0-1d671b038069,2021-01-01 00:00:00+00:00,2021-01-13 01:00:00+00:00,0.94,0.03,True
